grabbag
…
```
##  [1] "b_Y_Intercept" "b_M_Intercept" "b_Y_X"         "b_Y_M"        
##  [5] "b_M_X"         "sigma_Y"       "sigma_M"       "lp__"         
##  [9] "accept_stat__" "stepsize__"    "treedepth__"   "n_leapfrog__" 
## [13] "divergent__"   "energy__"
```

```r
med.1 %>% 
  spread_draws(b_Y_M, b_M_X,b_Y_X) 
```

```
## # A tibble: 4,000 x 6
##    .chain .iteration .draw b_Y_M b_M_X    b_Y_X
##     <int>      <int> <int> <dbl> <dbl>    <dbl>
##  1      1          1     1 0.748 0.552  0.00151
##  2      1          2     2 0.679 0.388 -0.0409 
##  3      1          3     3 0.985 0.637 -0.0148 
##  4      1          4     4 0.702 0.419  0.113  
##  5      1          5     5 0.530 0.535  0.182  
##  6      1          6     6 0.487 0.588  0.201  
##  7      1          7     7 0.569 0.653  0.0600 
##  8      1          8     8 1.02  0.358 -0.0793 
##  9      1          9     9 0.767 0.697 -0.0121 
## 10      1         10    10 0.886 0.407 -0.0412 
## # … with 3,990 more rows
```
…
---

```r
melsm.2 %>% 
spread_draws(b_sigma_Intercept,r_record_id__sigma[ID, term]) 
```

```
## # A tibble: 1,544,000 x 7
## # Groups:   ID, term [193]
##    .chain .iteration .draw b_sigma_Intercept    ID term      r_record_id__sigma
##     <int>      <int> <int>             <dbl> <int> <chr>                  <dbl>
##  1      1          1     1            -0.773     1 Intercept              0.400
##  2      1          1     1            -0.773     2 Intercept             -1.23 
##  3      1          1     1            -0.773     3 Intercept              0.246
##  4      1          1     1            -0.773     4 Intercept              0.659
##  5      1          1     1            -0.773     5 Intercept             -0.963
##  6      1          1     1            -0.773     6 Intercept              0.306
##  7      1          1     1            -0.773     7 Intercept              0.103
##  8      1          1     1            -0.773     8 Intercept             -0.973
##  9      1          1     1            -0.773     9 Intercept             -0.549
## 10      1          1     1            -0.773    10 Intercept             -0.322
## # … with 1,543,990 more rows
```
…
---

```r
imp.2 %>% 
  spread_draws(Ymi_chl[ID]) 
```

```
## # A tibble: 40,000 x 5
## # Groups:   ID [10]
##       ID Ymi_chl .chain .iteration .draw
##    <int>   <dbl>  <int>      <int> <int>
##  1     1    153.      1          1     1
##  2     1    147.      1          2     2
##  3     1    144.      1          3     3
##  4     1    220.      1          4     4
##  5     1    247.      1          5     5
##  6     1    179.      1          6     6
##  7     1    198.      1          7     7
##  8     1    157.      1          8     8
##  9     1    213.      1          9     9
## 10     1    171.      1         10    10
## # … with 39,990 more rows
```
…
