MLM
…
---

```r
mlm.1 %>%
  spread_draws(r_ID[ID, term]) 
```

```
## # A tibble: 1,456,000 x 6
## # Groups:   ID, term [91]
##       ID term          r_ID .chain .iteration .draw
##    <int> <chr>        <dbl>  <int>      <int> <int>
##  1     6 Intercept  0.00585      1          1     1
##  2     6 Intercept  0.00850      1          2     2
##  3     6 Intercept  0.00333      1          3     3
##  4     6 Intercept  0.00222      1          4     4
##  5     6 Intercept  0.0231       1          5     5
##  6     6 Intercept  0.0147       1          6     6
##  7     6 Intercept  0.00593      1          7     7
##  8     6 Intercept  0.00779      1          8     8
##  9     6 Intercept -0.00722      1          9     9
## 10     6 Intercept  0.00491      1         10    10
## # … with 1,455,990 more rows
```
16000 samples (4 chains * 4k iterations) * 91 people

---

```r
mlm.1 %>%
  spread_draws(r_ID[ID, term]) %>%
 median_qi()
```

```
## # A tibble: 91 x 8
## # Groups:   ID [91]
##       ID term           r_ID   .lower   .upper .width .point .interval
##    <int> <chr>         <dbl>    <dbl>    <dbl>  <dbl> <chr>  <chr>    
##  1     6 Intercept  0.000352 -0.0483   0.0496    0.95 median qi       
##  2    29 Intercept -0.0479   -0.105    0.00966   0.95 median qi       
##  3    34 Intercept -0.0611   -0.118   -0.00271   0.95 median qi       
##  4    36 Intercept -0.0224   -0.0794   0.0357    0.95 median qi       
##  5    37 Intercept -0.00303  -0.0515   0.0454    0.95 median qi       
##  6    48 Intercept  0.0231   -0.0250   0.0720    0.95 median qi       
##  7    53 Intercept  0.000113 -0.0581   0.0581    0.95 median qi       
##  8    54 Intercept  0.0453   -0.00385  0.0932    0.95 median qi       
##  9    58 Intercept  0.0367   -0.0140   0.0871    0.95 median qi       
## 10    61 Intercept -0.0746   -0.131   -0.0176    0.95 median qi       
## # … with 81 more rows
```
…
---

```r
mlm.1 %>%
  spread_draws(b_Intercept, r_ID[ID, term]) 
```

```
## # A tibble: 1,456,000 x 7
## # Groups:   ID, term [91]
##    .chain .iteration .draw b_Intercept    ID term          r_ID
##     <int>      <int> <int>       <dbl> <int> <chr>        <dbl>
##  1      1          1     1       0.185     6 Intercept  0.00585
##  2      1          1     1       0.185    29 Intercept -0.0423 
##  3      1          1     1       0.185    34 Intercept -0.149  
##  4      1          1     1       0.185    36 Intercept  0.0127 
##  5      1          1     1       0.185    37 Intercept  0.0299 
##  6      1          1     1       0.185    48 Intercept  0.0213 
##  7      1          1     1       0.185    53 Intercept  0.00556
##  8      1          1     1       0.185    54 Intercept  0.0314 
##  9      1          1     1       0.185    58 Intercept  0.0559 
## 10      1          1     1       0.185    61 Intercept -0.0675 
## # … with 1,455,990 more rows
```

---

```r
mlm.1 %>%
  spread_draws(b_Intercept, r_ID[ID, term]) %>% 
   mutate(person_I = b_Intercept + r_ID) 
```

```
## # A tibble: 1,456,000 x 8
## # Groups:   ID, term [91]
##    .chain .iteration .draw b_Intercept    ID term          r_ID person_I
##     <int>      <int> <int>       <dbl> <int> <chr>        <dbl>    <dbl>
##  1      1          1     1       0.185     6 Intercept  0.00585   0.191 
##  2      1          1     1       0.185    29 Intercept -0.0423    0.143 
##  3      1          1     1       0.185    34 Intercept -0.149     0.0363
##  4      1          1     1       0.185    36 Intercept  0.0127    0.198 
##  5      1          1     1       0.185    37 Intercept  0.0299    0.215 
##  6      1          1     1       0.185    48 Intercept  0.0213    0.206 
##  7      1          1     1       0.185    53 Intercept  0.00556   0.191 
##  8      1          1     1       0.185    54 Intercept  0.0314    0.216 
##  9      1          1     1       0.185    58 Intercept  0.0559    0.241 
## 10      1          1     1       0.185    61 Intercept -0.0675    0.118 
## # … with 1,455,990 more rows
```
…
