Multiple Regression
…
MR
```

```
## # A tibble: 118 x 10
##       ID `friendship qua… happiness `schoool succes…   SES `intervention g…
##    <dbl>            <dbl>     <dbl>            <dbl> <dbl>            <dbl>
##  1     1            10.2       3.20             6.16 2.23                 1
##  2     2             5.59      7.01             8.91 3.16                 1
##  3     3             6.58      6.17            10.5  0.950                1
##  4     4             8.95      8.70            11.5  1.73                 1
##  5     5             7.60      5.27             5.55 2.29                 1
##  6     6             8.16      5.12             7.51 3.44                 1
##  7     7             9.08      6.85             8.56 2.44                 1
##  8     8             3.41      1.77             4.1  2.11                 1
##  9     9             8.66      3.75             5.39 2.19                 1
## 10    10             4.85      5.45            13.9  1.24                 1
## # … with 108 more rows, and 4 more variables: SS_c <dbl>, FQ_c <dbl>, iv <dbl>,
## #   iv.d <fct>
```
…
```
##  [1] "b_Intercept"     "b_SS_c"          "b_FQ_c"          "sigma"          
##  [5] "prior_Intercept" "prior_b_SS_c"    "prior_b_FQ_c"    "prior_sigma"    
##  [9] "lp__"            "accept_stat__"   "stepsize__"      "treedepth__"    
## [13] "n_leapfrog__"    "divergent__"     "energy__"
```

```r
mr.1 %>% 
spread_draws(b_Intercept, b_SS_c, b_FQ_c, sigma)
```

```
## # A tibble: 2,000 x 7
##    .chain .iteration .draw b_Intercept b_SS_c b_FQ_c sigma
##     <int>      <int> <int>       <dbl>  <dbl>  <dbl> <dbl>
##  1      1          1     1        5.38  0.447  0.355  1.73
##  2      1          2     2        5.18  0.412  0.229  1.56
##  3      1          3     3        5.35  0.392  0.212  1.61
##  4      1          4     4        5.07  0.347  0.207  1.53
##  5      1          5     5        5.16  0.337  0.215  1.47
##  6      1          6     6        5.20  0.316  0.241  1.50
##  7      1          7     7        5.30  0.336  0.238  1.63
##  8      1          8     8        5.13  0.454  0.291  1.52
##  9      1          9     9        5.01  0.337  0.216  1.71
## 10      1         10    10        5.13  0.290  0.208  1.73
## # … with 1,990 more rows
```

---

```r
MR %>% 
 add_fitted_draws(mr.1)
```

```
## # A tibble: 236,000 x 15
## # Groups:   ID, friendship quality, happiness, schoool success, SES,
## #   intervention group, SS_c, FQ_c, iv, iv.d, .row [118]
##       ID `friendship qua… happiness `schoool succes…   SES `intervention g…
##    <dbl>            <dbl>     <dbl>            <dbl> <dbl>            <dbl>
##  1     1             10.2      3.20             6.16  2.23                1
##  2     1             10.2      3.20             6.16  2.23                1
##  3     1             10.2      3.20             6.16  2.23                1
##  4     1             10.2      3.20             6.16  2.23                1
##  5     1             10.2      3.20             6.16  2.23                1
##  6     1             10.2      3.20             6.16  2.23                1
##  7     1             10.2      3.20             6.16  2.23                1
##  8     1             10.2      3.20             6.16  2.23                1
##  9     1             10.2      3.20             6.16  2.23                1
## 10     1             10.2      3.20             6.16  2.23                1
## # … with 235,990 more rows, and 9 more variables: SS_c <dbl>, FQ_c <dbl>,
## #   iv <dbl>, iv.d <fct>, .row <int>, .chain <int>, .iteration <int>,
## #   .draw <int>, .value <dbl>
```
236,000 rows comes from (N = 118 * 2000 post warmup samples). Different .value (y-hat, fitted value) for each person for each sample. 

---
.pull-left[

```r
MR %>% 
  data_grid(FQ_c = seq_range(FQ_c, n = 101), .model=MR)
```

```
## # A tibble: 101 x 9
##     FQ_c `friendship qua… happiness `schoool succes…   SES `intervention g…
##    <dbl>            <dbl>     <dbl>            <dbl> <dbl>            <dbl>
##  1 -6.92             7.75      5.34             8.52  2.31                2
##  2 -6.78             7.75      5.34             8.52  2.31                2
##  3 -6.64             7.75      5.34             8.52  2.31                2
##  4 -6.50             7.75      5.34             8.52  2.31                2
##  5 -6.36             7.75      5.34             8.52  2.31                2
##  6 -6.22             7.75      5.34             8.52  2.31                2
##  7 -6.08             7.75      5.34             8.52  2.31                2
##  8 -5.94             7.75      5.34             8.52  2.31                2
##  9 -5.80             7.75      5.34             8.52  2.31                2
## 10 -5.66             7.75      5.34             8.52  2.31                2
## # … with 91 more rows, and 3 more variables: SS_c <dbl>, iv <dbl>, iv.d <chr>
```
…
FQ_c has 101 different values, ranging from min to max. Everything else is set at "typical" values. ]

---

```r
MR %>% 
  data_grid(FQ_c = seq_range(FQ_c, n = 101), .model=MR) %>%
 add_fitted_draws(mr.1)
```

```
## # A tibble: 202,000 x 14
## # Groups:   FQ_c, friendship quality, happiness, schoool success, SES,
## #   intervention group, SS_c, iv, iv.d, .row [101]
##     FQ_c `friendship qua… happiness `schoool succes…   SES `intervention g…
##    <dbl>            <dbl>     <dbl>            <dbl> <dbl>            <dbl>
##  1 -6.92             7.75      5.34             8.52  2.31                2
##  2 -6.92             7.75      5.34             8.52  2.31                2
##  3 -6.92             7.75      5.34             8.52  2.31                2
##  4 -6.92             7.75      5.34             8.52  2.31                2
##  5 -6.92             7.75      5.34             8.52  2.31                2
##  6 -6.92             7.75      5.34             8.52  2.31                2
##  7 -6.92             7.75      5.34             8.52  2.31                2
##  8 -6.92             7.75      5.34             8.52  2.31                2
##  9 -6.92             7.75      5.34             8.52  2.31                2
## 10 -6.92             7.75      5.34             8.52  2.31                2
## # … with 201,990 more rows, and 8 more variables: SS_c <dbl>, iv <dbl>,
## #   iv.d <chr>, .row <int>, .chain <int>, .iteration <int>, .draw <int>,
## #   .value <dbl>
```
…
---
## Create our own Posterior Predictive Distribution
50*118 = 5900

```r
MR %>% 
  select(-SES, -'intervention group') %>% 
 add_predicted_draws(mr.1) %>% 
    sample_draws(50) 
```

```
## # A tibble: 5,900 x 13
## # Groups:   ID, friendship quality, happiness, schoool success, SS_c, FQ_c, iv,
## #   iv.d, .row [118]
##       ID `friendship qua… happiness `schoool succes…  SS_c  FQ_c    iv iv.d 
##    <dbl>            <dbl>     <dbl>            <dbl> <dbl> <dbl> <dbl> <fct>
##  1     1             10.2      3.20             6.16 -2.57  2.57     1 cont…
##  2     1             10.2      3.20             6.16 -2.57  2.57     1 cont…
##  3     1             10.2      3.20             6.16 -2.57  2.57     1 cont…
##  4     1             10.2      3.20             6.16 -2.57  2.57     1 cont…
##  5     1             10.2      3.20             6.16 -2.57  2.57     1 cont…
##  6     1             10.2      3.20             6.16 -2.57  2.57     1 cont…
##  7     1             10.2      3.20             6.16 -2.57  2.57     1 cont…
##  8     1             10.2      3.20             6.16 -2.57  2.57     1 cont…
##  9     1             10.2      3.20             6.16 -2.57  2.57     1 cont…
## 10     1             10.2      3.20             6.16 -2.57  2.57     1 cont…
## # … with 5,890 more rows, and 5 more variables: .row <int>, .chain <int>,
## #   .iteration <int>, .draw <int>, .prediction <dbl>
```
…
---

```r
mr.10 %>%
  spread_draws(r_iv[group,])
```

```
## # A tibble: 12,000 x 5
## # Groups:   group [3]
##    group    r_iv .chain .iteration .draw
##    <int>   <dbl>  <int>      <int> <int>
##  1     1 -0.139       1          1     1
##  2     1 -0.121       1          2     2
##  3     1  0.0255      1          3     3
##  4     1 -0.0644      1          4     4
##  5     1 -0.0841      1          5     5
##  6     1 -0.435       1          6     6
##  7     1  0.144       1          7     7
##  8     1 -0.475       1          8     8
##  9     1 -1.01        1          9     9
## 10     1 -0.639       1         10    10
## # … with 11,990 more rows
```
4000 samples * 3 groups

---

Same info as before in the ANOVA framnework (we just got fewer samples in mr.4)

```r
mr.4 %>% 
 gather_draws(b_iv1, b_iv2,b_iv3)
```

```
## # A tibble: 6,000 x 5
## # Groups:   .variable [3]
##    .chain .iteration .draw .variable .value
##     <int>      <int> <int> <chr>      <dbl>
##  1      1          1     1 b_iv1       4.74
##  2      1          2     2 b_iv1       5.14
##  3      1          3     3 b_iv1       5.25
##  4      1          4     4 b_iv1       5.29
##  5      1          5     5 b_iv1       4.78
##  6      1          6     6 b_iv1       5.30
##  7      1          7     7 b_iv1       5.07
##  8      1          8     8 b_iv1       4.86
##  9      1          9     9 b_iv1       5.07
## 10      1         10    10 b_iv1       4.86
## # … with 5,990 more rows
```
…
```
##    vars   n mean   sd median trimmed  mad   min  max range  skew kurtosis   se
## X1    1 118    0 2.49   0.14    0.05 2.26 -6.92 7.03 13.94 -0.18     0.28 0.23
```

```r
MR %>% 
data_grid(SS_c = seq_range(SS_c, n = 20), FQ_c = c(-2.5,0,2.5), .model = MR) 
```

```
## # A tibble: 120 x 11
##     SS_c  FQ_c `friendship qua… happiness `schoool succes…   SES
##    <dbl> <dbl>            <dbl>     <dbl>            <dbl> <dbl>
##  1 -8.71  -2.5             7.75      5.34             8.52  2.31
##  2 -8.71  -2.5             7.75      5.34             8.52  2.31
##  3 -8.71   0               7.75      5.34             8.52  2.31
##  4 -8.71   0               7.75      5.34             8.52  2.31
##  5 -8.71   2.5             7.75      5.34             8.52  2.31
##  6 -8.71   2.5             7.75      5.34             8.52  2.31
##  7 -7.80  -2.5             7.75      5.34             8.52  2.31
##  8 -7.80  -2.5             7.75      5.34             8.52  2.31
##  9 -7.80   0               7.75      5.34             8.52  2.31
## 10 -7.80   0               7.75      5.34             8.52  2.31
## # … with 110 more rows, and 5 more variables: `intervention group` <dbl>,
## #   iv <chr>, iv.d <chr>, iv2 <chr>, happy_c <dbl>
```

---

```r
MR %>% 
data_grid(SS_c = seq_range(SS_c, n = 20), FQ_c = c(-2.5,0,2.5), .model = MR) %>% add_fitted_draws(mr.13)
```

```
## # A tibble: 240,000 x 16
## # Groups:   SS_c, FQ_c, friendship quality, happiness, schoool success, SES,
## #   intervention group, iv, iv.d, iv2, happy_c, .row [120]
##     SS_c  FQ_c `friendship qua… happiness `schoool succes…   SES
##    <dbl> <dbl>            <dbl>     <dbl>            <dbl> <dbl>
##  1 -8.71  -2.5             7.75      5.34             8.52  2.31
##  2 -8.71  -2.5             7.75      5.34             8.52  2.31
##  3 -8.71  -2.5             7.75      5.34             8.52  2.31
##  4 -8.71  -2.5             7.75      5.34             8.52  2.31
##  5 -8.71  -2.5             7.75      5.34             8.52  2.31
##  6 -8.71  -2.5             7.75      5.34             8.52  2.31
##  7 -8.71  -2.5             7.75      5.34             8.52  2.31
##  8 -8.71  -2.5             7.75      5.34             8.52  2.31
##  9 -8.71  -2.5             7.75      5.34             8.52  2.31
## 10 -8.71  -2.5             7.75      5.34             8.52  2.31
## # … with 239,990 more rows, and 10 more variables: `intervention group` <dbl>,
## #   iv <chr>, iv.d <chr>, iv2 <chr>, happy_c <dbl>, .row <int>, .chain <int>,
## #   .iteration <int>, .draw <int>, .value <dbl>
```
…
---

```r
mr.14 %>% 
  spread_draws(b_Intercept, b_groupTx, b_SupportLevelmed,b_SupportLevelhigh, `b_groupTx:SupportLevelmed`, `b_groupTx:SupportLevelhigh`) %>% 
  mutate(Con_Lo = b_Intercept + b_groupTx * 0 + b_SupportLevelmed * 0 + `b_SupportLevelhigh` * 0 * 0 + `b_groupTx:SupportLevelmed` *0 * 0 + `b_groupTx:SupportLevelhigh` *0 * 0,
         Con_Med = b_Intercept + b_groupTx * 0 + b_SupportLevelmed * 1 + b_SupportLevelhigh * 0 +  `b_groupTx:SupportLevelmed`*0 * 1 + `b_groupTx:SupportLevelhigh` *0 * 0,
         Con_Hi = b_Intercept + b_groupTx * 0 + b_SupportLevelmed * 0 + b_SupportLevelhigh *1 +  `b_groupTx:SupportLevelmed` *0 * 0+ `b_groupTx:SupportLevelhigh` *0 * 1)
```

```
## # A tibble: 2,000 x 12
##    .chain .iteration .draw b_Intercept b_groupTx b_SupportLevelm…
##     <int>      <int> <int>       <dbl>     <dbl>            <dbl>
##  1      1          1     1        9.11  -1.18             -0.857 
##  2      1          2     2        7.21  -0.216             0.544 
##  3      1          3     3        8.20   0.707             0.0993
##  4      1          4     4        8.57  -1.13             -0.501 
##  5      1          5     5        8.09  -0.00720          -0.679 
##  6      1          6     6        8.74  -0.626            -0.673 
##  7      1          7     7        8.64  -0.704            -0.779 
##  8      1          8     8        6.92  -0.0865            0.721 
##  9      1          9     9        9.67  -0.811            -1.07  
## 10      1         10    10        9.69  -0.515            -1.25  
## # … with 1,990 more rows, and 6 more variables: b_SupportLevelhigh <dbl>,
## #   `b_groupTx:SupportLevelmed` <dbl>, `b_groupTx:SupportLevelhigh` <dbl>,
## #   Con_Lo <dbl>, Con_Med <dbl>, Con_Hi <dbl>
```
…
