Week 3
…
---

tidybayes offers a similar function which will be helpful for more complex models

```r
p.h1 <- h.1 %>% 
spread_draws(b_Intercept, b_happy_c, sigma)
p.h1
```

```
## # A tibble: 1,000 x 6
##    .chain .iteration .draw b_Intercept b_happy_c sigma
##     <int>      <int> <int>       <dbl>     <dbl> <dbl>
##  1      1          1     1        8.72    0.464   2.91
##  2      1          2     2        8.85    0.415   2.65
##  3      1          3     3        8.78    0.286   2.72
##  4      1          4     4        8.21    0.360   2.80
##  5      1          5     5        8.64    0.430   2.72
##  6      1          6     6        8.36    0.237   2.87
##  7      1          7     7        8.38    0.717   2.69
##  8      1          8     8        8.62   -0.0568  2.93
##  9      1          9     9        8.73    0.0476  2.87
## 10      1         10    10        8.59    0.225   2.88
## # … with 990 more rows
```

---

```r
p.h1.long <- h.1 %>% 
gather_draws(b_Intercept, b_happy_c, sigma)
p.h1.long
```

```
## # A tibble: 3,000 x 5
## # Groups:   .variable [3]
##    .chain .iteration .draw .variable   .value
##     <int>      <int> <int> <chr>        <dbl>
##  1      1          1     1 b_Intercept   8.72
##  2      1          2     2 b_Intercept   8.85
##  3      1          3     3 b_Intercept   8.78
##  4      1          4     4 b_Intercept   8.21
##  5      1          5     5 b_Intercept   8.64
##  6      1          6     6 b_Intercept   8.36
##  7      1          7     7 b_Intercept   8.38
##  8      1          8     8 b_Intercept   8.62
##  9      1          9     9 b_Intercept   8.73
## 10      1         10    10 b_Intercept   8.59
## # … with 2,990 more rows
```
…
.pull-left[

```r
  ph2.1 <- h.2 %>% 
  spread_draws(b_Intercept, b_mood.group.dtx, sigma) %>% 
  rename(control = b_Intercept) %>% 
  mutate(tx = control + b_mood.group.dtx) %>% 
  select(control, tx, sigma) %>% 
  mutate(`difference` = tx - control) %>%  
  mutate(`effect` =  difference / sigma) 
  ph2.1
```

```
## # A tibble: 1,000 x 5
##    control    tx sigma difference effect
##      <dbl> <dbl> <dbl>      <dbl>  <dbl>
##  1    8.20  9.27  2.85      1.07  0.376 
##  2    7.72  8.33  2.81      0.607 0.216 
##  3    8.26  8.96  2.85      0.704 0.247 
##  4    7.30  8.69  2.80      1.39  0.496 
##  5    8.66  8.99  2.89      0.329 0.114 
##  6    8.62  8.96  2.88      0.345 0.120 
##  7    8.38  8.50  2.63      0.117 0.0446
##  8    7.79  8.56  2.80      0.769 0.275 
##  9    8.08  8.52  2.71      0.442 0.163 
## 10    8.21  9.41  2.87      1.20  0.419 
## # … with 990 more rows
```
…
post.h7 
```

```
## # A tibble: 4,000 x 7
##    Control    Tx `Sigma Control` `Sigma Tx` Differences `Sigma Differen…
##      <dbl> <dbl>           <dbl>      <dbl>       <dbl>            <dbl>
##  1    7.70  9.02            2.85       2.83       1.32           -0.0241
##  2    8.09  8.96            2.72       2.82       0.870           0.0992
##  3    7.57  8.54            2.79       2.72       0.969          -0.0712
##  4    7.97  8.77            2.81       2.79       0.799          -0.0215
##  5    7.89  8.91            2.45       2.65       1.02            0.194 
##  6    7.91  8.93            2.54       2.74       1.02            0.194 
##  7    8.19  9.04            2.59       2.78       0.851           0.191 
##  8    7.59  8.36            2.92       2.91       0.773          -0.0106
##  9    7.79  8.60            2.79       2.88       0.810           0.0842
## 10    7.70  8.77            2.85       2.46       1.07           -0.397 
## # … with 3,990 more rows, and 1 more variable: `Effect Size` <dbl>
```
…
