GLM
…
---
## Example

```
## Warning: Missing column names filled in: 'X1' [1]
```

```r
mortality <- mortality %>% 
  mutate(IQ_c = IQ - mean(IQ))
mortality
```

```
## # A tibble: 300 x 6
##       X1 Risky.behavior premature.d NOT.premature    IQ   IQ_c
##    <dbl>          <dbl> <chr>               <dbl> <dbl>  <dbl>
##  1     1             19 normal                  1    22  5.43 
##  2     2             18 normal                  1    22  5.43 
##  3     3             21 normal                  1    21  4.43 
##  4     4             17 normal                  1    22  5.43 
##  5     5             18 normal                  1    19  2.43 
##  6     6             22 premature               0    19  2.43 
##  7     7             18 normal                  1    16 -0.573
##  8     8             11 premature               0    15 -1.57 
##  9     9             21 normal                  1    16 -0.573
## 10    10             20 normal                  1    19  2.43 
## # … with 290 more rows
```
…
---

```r
d
```

```
## # A tibble: 500 x 2
##    career career_income
##     <int>         <dbl>
##  1      3             5
##  2      3             5
##  3      3             5
##  4      3             5
##  5      3             5
##  6      3             5
##  7      3             5
##  8      3             5
##  9      3             5
## 10      3             5
## # … with 490 more rows
```
…
