grabbag
…
```
##  [1] "b_Y_Intercept" "b_M_Intercept" "b_Y_X"         "b_Y_M"        
##  [5] "b_M_X"         "sigma_Y"       "sigma_M"       "lp__"         
##  [9] "accept_stat__" "stepsize__"    "treedepth__"   "n_leapfrog__" 
## [13] "divergent__"   "energy__"
```

```r
med.1 %>% 
  spread_draws(b_Y_M, b_M_X,b_Y_X) 
```

```
## # A tibble: 4,000 x 6
##    .chain .iteration .draw b_Y_M b_M_X    b_Y_X
##     <int>      <int> <int> <dbl> <dbl>    <dbl>
##  1      1          1     1 0.748 0.552  0.00151
##  2      1          2     2 0.679 0.388 -0.0409 
##  3      1          3     3 0.985 0.637 -0.0148 
##  4      1          4     4 0.702 0.419  0.113  
##  5      1          5     5 0.530 0.535  0.182  
##  6      1          6     6 0.487 0.588  0.201  
##  7      1          7     7 0.569 0.653  0.0600 
##  8      1          8     8 1.02  0.358 -0.0793 
##  9      1          9     9 0.767 0.697 -0.0121 
## 10      1         10    10 0.886 0.407 -0.0412 
## # … with 3,990 more rows
```
…
