Week 3
…
---

tidybayes offers a similar function which will be helpful for more complex models

```r
p.h1 <- h.1 %>% 
spread_draws(b_Intercept, b_happy, sigma)
p.h1
```

```
## # A tibble: 4,000 x 6
##    .chain .iteration .draw b_Intercept b_happy sigma
##     <int>      <int> <int>       <dbl>   <dbl> <dbl>
##  1      1          1     1        8.07  0.330   2.74
##  2      1          2     2        8.43  0.200   2.87
##  3      1          3     3        7.95  0.176   2.79
##  4      1          4     4        7.44  0.481   2.74
##  5      1          5     5        7.67  0.238   2.78
##  6      1          6     6        7.77  0.345   2.85
##  7      1          7     7        7.39  0.520   2.82
##  8      1          8     8        8.42  0.0551  2.84
##  9      1          9     9        7.84  0.331   3.04
## 10      1         10    10        7.31  0.502   3.00
## # … with 3,990 more rows
```

---

```r
p.h1.long <- h.1 %>% 
gather_draws(b_Intercept, b_happy, sigma)
p.h1.long
```

```
## # A tibble: 12,000 x 5
## # Groups:   .variable [3]
##    .chain .iteration .draw .variable   .value
##     <int>      <int> <int> <chr>        <dbl>
##  1      1          1     1 b_Intercept   8.07
##  2      1          2     2 b_Intercept   8.43
##  3      1          3     3 b_Intercept   7.95
##  4      1          4     4 b_Intercept   7.44
##  5      1          5     5 b_Intercept   7.67
##  6      1          6     6 b_Intercept   7.77
##  7      1          7     7 b_Intercept   7.39
##  8      1          8     8 b_Intercept   8.42
##  9      1          9     9 b_Intercept   7.84
## 10      1         10    10 b_Intercept   7.31
## # … with 11,990 more rows
```
…
